{
    "type": "FeatureCollection",
    "name": "out",
    "crs": { "type": "name", "properties": { "name": "urn:ogc:def:crs:EPSG::3857" } },
    "features": [
    { "type": "Feature", "properties": { "DN": 255 }, "geometry": { "type": "Polygon", "coordinates": [ [ [ -13601529.354369390755892, 5835368.807594820857048 ], [ -13601327.368916539475322, 5828851.603504181839526 ], [ -13599159.9196239374578, 5828910.126674991101027 ], [ -13599218.014484040439129, 5831081.932149481959641 ], [ -13597048.564802957698703, 5831139.928654419258237 ], [ -13596991.001610819250345, 5828968.099986184388399 ], [ -13594887.134293651208282, 5829023.35898411180824 ], [ -13594879.092119896784425, 5831197.389840635471046 ], [ -13590542.95404539629817, 5831312.189994227141142 ], [ -13590260.456766927614808, 5820456.517291435040534 ], [ -13592427.31887455098331, 5820400.237087550573051 ], [ -13592373.782538453117013, 5818232.498332899995148 ], [ -13594535.777889173477888, 5818174.210171076469123 ], [ -13594421.955252975225449, 5813838.84534146822989 ], [ -13596587.215104607865214, 5813778.672224890440702 ], [ -13596528.373877225443721, 5811611.063840796239674 ], [ -13598693.050009129568934, 5811553.277143878862262 ], [ -13598635.145852878689766, 5809386.233965101651847 ], [ -13605124.563875569030643, 5809209.72620209492743 ], [ -13605185.495440678671002, 5811376.711787009611726 ], [ -13607350.076691694557667, 5811316.798204730264843 ], [ -13607410.119194135069847, 5813484.270997610874474 ], [ -13611738.817344693467021, 5813362.809734117239714 ], [ -13611775.125652698799968, 5814608.205264674499631 ], [ -13610448.929554076865315, 5814597.417274939827621 ], [ -13610460.325036695227027, 5815551.705644710920751 ], [ -13611492.707519859075546, 5815984.074701898731291 ], [ -13611651.025151418522, 5816669.043803458102047 ], [ -13613067.329862207174301, 5817776.80901509243995 ], [ -13613118.771899688988924, 5818482.653198891319335 ], [ -13614071.667591800913215, 5819140.122344327159226 ], [ -13614138.956946698948741, 5821496.436154020950198 ], [ -13613831.320608025416732, 5821984.912103797309101 ], [ -13611984.901957675814629, 5822037.794538542628288 ], [ -13612041.778751026839018, 5824207.826475761830807 ], [ -13609879.846557412296534, 5824268.990137489512563 ], [ -13609939.104708325117826, 5826439.602342906408012 ], [ -13607772.281775344163179, 5826500.227539331652224 ], [ -13607831.03209113702178, 5828671.392970554530621 ], [ -13605665.100850500166416, 5828731.533148664981127 ], [ -13605673.682761874049902, 5833020.756272453814745 ], [ -13602790.803025925531983, 5833366.203378853388131 ], [ -13603611.724366346374154, 5834574.507813875563443 ], [ -13603582.631538789719343, 5835311.406787399202585 ], [ -13601529.354369390755892, 5835368.807594820857048 ] ] ] } }
    ]
    }
